…
The `data` column contains the original untidied text and the `tidied` column contains the tidied text, organized with each sentence on its own row; both are list-columns. Now let's unnest this so we get rid of the list-columns and have sentences in their own rows.


{% highlight r %}
tidybooks <- tidybooks %>%
    unnest(tidied)

tidybooks
{% endhighlight %}



{% highlight text %}
## # A tibble: 64,716 × 3
##                   title gutenberg_id
##                   <chr>        <int>
## 1  Anne of Green Gables           45
## 2  Anne of Green Gables           45
## 3  Anne of Green Gables           45
## 4  Anne of Green Gables           45
## 5  Anne of Green Gables           45
## 6  Anne of Green Gables           45
## 7  Anne of Green Gables           45
## 8  Anne of Green Gables           45
## 9  Anne of Green Gables           45
## 10 Anne of Green Gables           45
## # ... with 64,706 more rows, and 1 more variables: sentence <chr>
…
{% highlight r %}
tidybooks <- tidybooks %>%
    unnest_tokens(word, sentence, drop = FALSE) %>%
    rowwise() %>%
    mutate(n_syllables = count_syllables(word)) %>%
    ungroup()

tidybooks %>%
    select(word, n_syllables)
{% endhighlight %}



{% highlight text %}
## # A tibble: 1,070,066 × 2
##          word n_syllables
##         <chr>       <dbl>
## 1        anne           1
## 2          of           1
## 3       green           1
## 4      gables           2
## 5          by           1
## 6        lucy           2
## 7        maud           1
## 8  montgomery           4
## 9       table           2
## 10         of           1
## # ... with 1,070,056 more rows
…
