…
{% highlight r %}
library(tidyverse)
library(tidytext)
library(janeaustenr)

austen_bigrams <- austen_books() %>%
    unnest_tokens(bigram, text, token = "ngrams", n = 2)

austen_bigrams
{% endhighlight %}



{% highlight text %}
## # A tibble: 725,048 × 2
##                   book          bigram
##                 <fctr>           <chr>
## 1  Sense & Sensibility       sense and
## 2  Sense & Sensibility and sensibility
## 3  Sense & Sensibility  sensibility by
## 4  Sense & Sensibility         by jane
## 5  Sense & Sensibility     jane austen
## 6  Sense & Sensibility     austen 1811
## 7  Sense & Sensibility    1811 chapter
## 8  Sense & Sensibility       chapter 1
## 9  Sense & Sensibility           1 the
## 10 Sense & Sensibility      the family
## # ... with 725,038 more rows
…
bigram_counts <- austen_bigrams %>%
    count(book, bigram, sort = TRUE) %>%
    ungroup() %>%
    separate(bigram, c("word1", "word2"), sep = " ") %>%
    filter(word1 %in% pronouns) %>%
    count(word1, word2, wt = n, sort = TRUE) %>%
    rename(total = nn)

bigram_counts
{% endhighlight %}



{% highlight text %}
## # A tibble: 1,571 × 3
##    word1 word2 total
##    <chr> <chr> <int>
## 1    she   had  1472
## 2    she   was  1377
## 3     he   had  1023
## 4     he   was   889
## 5    she could   817
## 6     he    is   399
## 7    she would   383
## 8    she    is   330
## 9     he could   307
## 10    he would   264
## # ... with 1,561 more rows
…
Which words have about the same likelihood of following "he" or "she" in Jane Austen's novels?


{% highlight r %}
word_ratios %>% 
    arrange(abs(logratio))
{% endhighlight %}



{% highlight text %}
## # A tibble: 164 × 4
##           word2          he          she    logratio
##           <chr>       <dbl>        <dbl>       <dbl>
## 1        always 0.001846438 0.0018956289  0.02629233
## 2         loves 0.000923219 0.0008920607 -0.03433229
## 3           too 0.000923219 0.0008920607 -0.03433229
## 4          when 0.000923219 0.0008920607 -0.03433229
## 5  acknowledged 0.001077089 0.0011150758  0.03466058
## 6      remained 0.001077089 0.0011150758  0.03466058
## 7           had 0.157562702 0.1642506690  0.04157024
## 8        paused 0.001384828 0.0014495986  0.04571041
## 9         would 0.040775504 0.0428189117  0.04889836
## 10       turned 0.003077397 0.0032337199  0.04954919
## # ... with 154 more rows
…
